{
    "files":[
        {
            "name":"Devis",
            "path": "./pdf.pdf",
            "date":"25/03/2002"
        },
        {
            "name":"Devis",
            "path": "./pdf.pdf",
            "date":"25/03/2002"
        },
        {
            "name":"Devis",
            "path": "./pdf.pdf",
            "date":"25/03/2002"
        },
        {
            "name":"Devis",
            "path": "./pdf.pdf",
            "date":"25/03/2002"
        },
        {
            "name":"Devis",
            "path": "./pdf.pdf",
            "date":"25/03/2002"
        },
        {
            "name":"Devis",
            "path": "./pdf.pdf",
            "date":"25/03/2002"
        },    
        {
            "name":"Devis",
            "path": "./pdf.pdf",
            "date":"25/03/2002"
        }
    ]

}